<svg xmlns="http://www.w3.org/2000/svg" width="17" height="17" viewBox="0 0 17 17">
    <path fill="#714141" fill-rule="evenodd"
          d="M6.657 8.071L.293 14.435a1 1 0 0 0 1.414 1.414l6.364-6.364 6.364 6.364a1 1 0 1 0 1.414-1.414L9.485 8.071l6.364-6.364A1 1 0 1 0 14.435.293L8.071 6.657 1.707.293A1 1 0 0 0 .293 1.707l6.364 6.364z"/>
</svg>
